first_name,people_count
Александр,32
Андрей,21
Дмитрий,18
Сергей,16
Михаил,16
Никита,15
Денис,14
Алексей,12
Владимир,12
Артём,11
Павел,10
Роман,9
Максим,9
Антон,9
Николай,9
Илья,8
Владислав,8
Иван,8
Влад,8
Вадим,7
Евгений,7
Егор,7
Кирилл,7
Дима,7
Данил,6
Виктор,6
Юрий,6
Игорь,6
Олег,6
Константин,6
Виталий,6
Даниил,5
Ярослав,4
Артем,4
Леонид,4
Alex,4
Макс,3
Konstantin,3
Георгий,3
Ахмед,3
Эдуард,2
Альберт,2
Давид,2
Марк,2
Матвей,2
Вячеслав,2
Валерий,2
Платон,2
Ислам,2
Юра,2
Хамзат,2
Борис,2
Мухаммад,2
Артур,2
Арсен,2
Анатолий,2
Валера,2
Alexandr,2
Тихон,2
Oleg,2
Лев,2
Саша,2
Клим,1
Колюня,1
Миша,1
Коллизиум,1
Мохамад,1
‘’,1
にゃ,1
Мурад,1
Капитон,1
Иш,1
Эмиль,1
Мусабий,1
Маргарита,1
Лера,1
Юсуп,1
มิรอนทิค,1
Мингиян,1
Ли-Бакан,1
Милолика,1
Лёня,1
Лёша,1
Март,1
Мага,1
ەغوقابېقاقغند,1
Магомед,1
Лев-В-Начи,1
Филипп,1
Эльдар,1
Степан,1
Саид-Магомед,1
Сайпудин,1
Саня,1
Севастьян,1
Сельджук,1
Хаваж,1
Славик,1
Сократ,1
Станислав,1
Страница,1
Савва,1
Тапик,1
Тая,1
Твоё,1
Тема,1
Тигран,1
Тим,1
Тимур,1
Турпал,1
Усков,1
Саид,1
Рустам,1
Мустафо,1
Петр,1
Назар,1
Федор,1
Эд,1
Шкаф,1
Никос,1
Обарг,1
Шарип,1
Шамиль,1
Шайхи,1
Радмир,1
Руслан,1
Чернышов,1
Хасан,1
Рамиль,1
Ришат,1
Роберт,1
Родион,1
Ролан,1
Рома,1
Ростислав,1
Никогда,1
Adam,1
Ираклий,1
Roma,1
Lex,1
Moncef,1
Muhammad,1
No,1
Nohcho,1
Puny,1
Raiden,1
Rashid,1
Raymond,1
Riki,1
Romsan,1
Идрис,1
Ruslan,1
Sasha,1
Sedrak,1
Serg,1
Sergej,1
Slevin,1
Suleyman,1
Timyr,1
Viktor,1
Vitalik,1
Kop,1
Kim,1
Joseph,1
John,1
Aleksander,1
Aleksandr,1
Archi,1
Artur,1
Axxzxzcxmww,1
Aza,1
Azrael,1
Berserk,1
Bogdan,1
Daddy,1
Danil,1
Darion,1
Daryl,1
Dmitry,1
Eklersof,1
Enechka,1
Frost,1
Gleb,1
Gridasov,1
Jake,1
Johan,1
Vlad,1
Vladimir,1
Vladislav,1
Вова,1
Гагик,1
Геворг,1
Геннадий,1
Давуд,1
Даня,1
Ден,1
Дени,1
Джегир,1
Диана,1
Дим,1
Akhmednabi,1
Дуйсали,1
Екатерина,1
Женя,1
Жора,1
Жорик,1
Заур,1
Злой,1
Ибак,1
Ивана,1
Игнат,1
Всеволод,1
Виталик,1
Xspi,1
Вилен-Анна,1
Ysufjon,1
Zulam,1
Абусаид,1
Адам,1
Алан,1
Алихан,1
Амфред,1
Ан,1
Анваршо,1
Арсентий,1
Арт,1
Артак,1
Артемий,1
Арутюн,1
Ахмат,1
Аюб,1
Бехдад,1
Бурхан,1
Валентин,1
Ваня,1
Василий,1
黄瓜,1
