first_name,people_count
Анастасия,24
Анна,20
Наталья,20
Татьяна,19
Мария,14
Ольга,14
Юлия,13
Виктория,12
Светлана,12
Ирина,11
Екатерина,10
Елена,10
Алина,10
Полина,7
Кристина,7
Людмила,7
Дарья,7
Елизавета,6
Лена,6
Валерия,6
Диана,6
Яна,6
Катя,5
Настя,5
Оксана,5
Галина,4
Ксения,4
Марина,4
Надежда,4
Александра,4
Нина,4
Лидия,3
Вера,3
Лера,3
Маргарита,3
Аня,3
Алёна,3
Карина,3
Наталия,3
Вероника,3
Маша,3
София,3
Софья,3
Анжела,2
Дарина,2
Милана,2
Евгения,2
Лейла,2
Даша,2
Арина,2
Женя,2
Anastasia,2
Дианочка,2
Амелия,2
Оля,2
Лиза,2
Наташа,2
Инна,2
Ангелина,2
Лина,2
Олеся,2
Элеонора,2
Амина,2
Пяри,1
Тома,1
Сулико,1
’fearsome,1
Тамила,1
Уставший,1
Лианочка,1
Ульяна,1
さくら,1
Фарида,1
Лариса,1
Лара,1
Лада,1
Ксюша,1
Фатима,1
Феодотия,1
凛,1
Кирилл,1
Лилия,1
Сильва,1
Софа,1
Рита,1
Լյու,1
Окси,1
Раисия,1
Расул,1
Нелли,1
ألينا,1
Раяна,1
Регина,1
Настасья,1
Рина,1
Нана,1
Кира,1
Мирослава,1
Лия,1
Милена,1
Руслана,1
Эльвира,1
مريم,1
Мариям,1
Саида,1
‘’,1
людмила,1
Маргаритка,1
Седа,1
Любовь,1
Снежану,1
Эмилия,1
Alexandera,1
Калерия,1
Ruslana,1
Ixoaoqoq,1
Jaylah,1
Kamila,1
Kasya,1
Ksenia,1
Leyla,1
Lu,1
Madi,1
Madina,1
Margarita,1
Maria,1
Maryam,1
Maryan,1
Mclàren,1
Moon,1
Nadya,1
Nat,1
Innusya,1
Evgeniya,1
Elli,1
Da,1
Alima,1
Alla,1
Am,1
Amina,1
Anastasiya,1
Argun,1
Carla,1
Dana,1
Ella,1
Darja,1
Darya,1
Dasha,1
Diana,1
Ekaterina,1
El,1
El'vina,1
Natasha,1
Saniyat,1
Инесса,1
Souzana,1
Ася,1
Аэлита,1
Бордюр,1
Варя,1
Василиса,1
Вика,1
Гульнара,1
Гульнур,1
Диляра,1
Дэки,1
Ева,1
Alice,1
Жураева,1
Иисус,1
Илона,1
Ильзе,1
Инга,1
Асия,1
Арпи,1
Арамат,1
Аделина,1
Tabba,1
Tae,1
Valeria,1
Vestaliya,1
Wek,1
Zr,1
Τатьяна,1
Аиша,1
Анюта,1
Айша,1
Алена,1
Алиса,1
Алсу,1
Альбина,1
Альфира,1
Амалия,1
마키마,1
